ISSS624 - In-class Exercise 2
…
activate() (under dplyr package) is used to activate the geometry context.

mutate() (under dplyr package) is used

Computing Gi*

gi_stars = GDPPC_nb %>%
  group_by(Year) %>%
  mutate(gi_star = local_gstar_perm(
    GDPPC, nb, wt)) %>%
  unnest(gi_star)

gi_stars

# A tibble: 1,496 × 13
# Groups:   Year [17]
    Year County    GDPPC nb        wt     gi_star   e_gi  var_gi p_value   p_sim
   <dbl> <chr>     <dbl> <list>    <list>   <dbl>  <dbl>   <dbl>   <dbl>   <dbl>
 1  2005 Anxiang    8184 <int [6]> <dbl>    0.398 0.0116 3.08e-6  0.302  0.762  
 2  2005 Hanshou    6560 <int [6]> <dbl>   -0.237 0.0109 2.52e-6 -0.0147 0.988  
 3  2005 Jinshi     9956 <int [5]> <dbl>    1.05  0.0125 3.00e-6  0.614  0.539  
 4  2005 Li         8394 <int [5]> <dbl>    0.966 0.0119 3.25e-6  0.809  0.419  
 5  2005 Linli      8850 <int [5]> <dbl>    1.05  0.0120 2.84e-6  0.948  0.343  
 6  2005 Shimen     9244 <int [6]> <dbl>    0.210 0.0121 2.91e-6 -0.169  0.866  
 7  2005 Liuyang   13406 <int [5]> <dbl>    3.91  0.0144 3.47e-6  2.79   0.00523
 8  2005 Ningxiang 11687 <int [8]> <dbl>    1.61  0.0127 2.28e-6  0.875  0.382  
 9  2005 Wangcheng 14659 <int [7]> <dbl>    3.88  0.0140 2.58e-6  2.66   0.00775
10  2005 Anren      7423 <int [9]> <dbl>    1.67  0.0113 2.11e-6  1.87   0.0617 
# ℹ 1,486 more rows
# ℹ 3 more variables: p_folded_sim <dbl>, skewness <dbl>, kurtosis <dbl>
…
