…
The AirBnB listing aspatial data is imported into the R environment as a tibble data frame, and converted to a simple feature data frame.

The csv file is imported using **read_csv()** (under readr package) as a tibble data frame. Then, a quick check is conducted on the imported data.

```{r}
listings = read_csv("Hands-on_Ex1/data/aspatial/listings.csv")

list(listings)
```

Outcome:

```         
[[1]] 
# A tibble: 3,483 × 18
      id name        host_id host_name neighbourhood_group neighbourhood     
      <dbl> <chr>         <dbl> <chr>     <chr>               <chr>          
1  71609 Villa in S…  367042 Belinda   East Region         Tampines       
2  71896 Home in Si…  367042 Belinda   East Region         Tampines       
3  71903 Home in Si…  367042 Belinda   East Region         Tampines       
4 275343 Rental uni… 1439258 Kay       Central Region      Bukit Merah    
5 275344 Rental uni… 1439258 Kay       Central Region      Bukit Merah    
6 289234 Home in Si…  367042 Belinda   East Region         Tampines       
7 294281 Rental uni… 1521514 Elizabeth Central Region      Newton         
8 324945 Rental uni… 1439258 Kay       Central Region      Bukit Merah    
9 330095 Rental uni… 1439258 Kay       Central Region      Bukit Merah   
10 369141 Place to s… 1521514 Elizabeth Central Region      Newton        
# ℹ 3,473 more rows
# ℹ 12 more variables: latitude <dbl>, longitude <dbl>, room_type <chr>, 
#   price <dbl>, minimum_nights <dbl>, number_of_reviews <dbl>, 
#   last_review <date>, reviews_per_month <dbl>, 
#   calculated_host_listings_count <dbl>, availability_365 <dbl>, 
#   number_of_reviews_ltm <dbl>, license <chr> 
# ℹ Use `print(n = ...)` to see more rows
```
…
