ISSS624 - Take-home Exercise 2: Applied Spatial Interaction Models: A Case Study of Singapore Public Bus Commuter Flows
…
odbus = left_join(odbus, busstop_hgrid,
                       by = c("ORIGIN_PT_CODE" = "BUS_STOP_N")) %>%
  rename(ORIGIN_BS = ORIGIN_PT_CODE,
         ORIGIN_GRID = grid_id)

A check for duplicates is conducted. Since 754 records are found to be duplicates, they are removed and a confirmatory check is conducted.

duplicate = odbus %>%
  group_by_all() %>%
  filter(n()>1) %>%
  ungroup()  

duplicate

# A tibble: 754 × 4
   ORIGIN_BS DESTINATION_PT_CODE TRIPS ORIGIN_GRID
       <int>               <int> <int>       <int>
 1     11009                1411     7         993
 2     11009                1411     7         993
 3     11009                1421    17         993
 4     11009                1421    17         993
 5     11009                1511    18         993
 6     11009                1511    18         993
 7     11009                1521     6         993
 8     11009                1521     6         993
 9     11009                1611     2         993
10     11009                1611     2         993
# ℹ 744 more rows
…
odbus = left_join(odbus, busstop_hgrid,
                       by = c("DESTINATION_PT_CODE" = "BUS_STOP_N")) %>%
  rename(DESTIN_BS = DESTINATION_PT_CODE,
         DESTIN_GRID = grid_id)

Another check for duplicates is then conducted. Since 828 records are found to be duplicates, they are removed and a confirmatory check is conducted.

duplicate = odbus %>%
  group_by_all() %>%
  filter(n()>1) %>%
  ungroup()  

duplicate

# A tibble: 828 × 5
   ORIGIN_BS DESTIN_BS TRIPS ORIGIN_GRID DESTIN_GRID
       <int>     <int> <int>       <int>       <int>
 1      1013     51071     1        1334        1262
 2      1013     51071     1        1334        1262
 3      1112     51071    65        1354        1262
 4      1112     51071    65        1354        1262
 5      1121     51071     3        1392        1262
 6      1121     51071     3        1392        1262
 7      1239     51071    22        1392        1262
 8      1239     51071    22        1392        1262
 9      1329     51071    30        1411        1262
10      1329     51071    30        1411        1262
# ℹ 818 more rows
…
