ISSS624 - Hands-on Exercise 1
…
Rows: 3483 Columns: 18
── Column specification ────────────────────────────────────────────────────────
Delimiter: ","
chr   (6): name, host_name, neighbourhood_group, neighbourhood, room_type, l...
dbl  (11): id, host_id, latitude, longitude, price, minimum_nights, number_o...
date  (1): last_review

ℹ Use `spec()` to retrieve the full column specification for this data.
ℹ Specify the column types or set `show_col_types = FALSE` to quiet this message.

list(listings)

[[1]]
# A tibble: 3,483 × 18
       id name      host_id host_name neighbourhood_group neighbourhood latitude
    <dbl> <chr>       <dbl> <chr>     <chr>               <chr>            <dbl>
 1  71609 Villa in…  367042 Belinda   East Region         Tampines          1.35
 2  71896 Home in …  367042 Belinda   East Region         Tampines          1.35
 3  71903 Home in …  367042 Belinda   East Region         Tampines          1.35
 4 275343 Rental u… 1439258 Kay       Central Region      Bukit Merah       1.29
 5 275344 Rental u… 1439258 Kay       Central Region      Bukit Merah       1.29
 6 289234 Home in …  367042 Belinda   East Region         Tampines          1.34
 7 294281 Rental u… 1521514 Elizabeth Central Region      Newton            1.31
 8 324945 Rental u… 1439258 Kay       Central Region      Bukit Merah       1.29
 9 330095 Rental u… 1439258 Kay       Central Region      Bukit Merah       1.29
10 369141 Place to… 1521514 Elizabeth Central Region      Newton            1.31
# ℹ 3,473 more rows
# ℹ 11 more variables: longitude <dbl>, room_type <chr>, price <dbl>,
#   minimum_nights <dbl>, number_of_reviews <dbl>, last_review <date>,
#   reviews_per_month <dbl>, calculated_host_listings_count <dbl>,
#   availability_365 <dbl>, number_of_reviews_ltm <dbl>, license <chr>

Outcome:

[[1]] 
# A tibble: 3,483 × 18
      id name        host_id host_name neighbourhood_group neighbourhood     
      <dbl> <chr>         <dbl> <chr>     <chr>               <chr>          
1  71609 Villa in S…  367042 Belinda   East Region         Tampines       
2  71896 Home in Si…  367042 Belinda   East Region         Tampines       
3  71903 Home in Si…  367042 Belinda   East Region         Tampines       
4 275343 Rental uni… 1439258 Kay       Central Region      Bukit Merah    
5 275344 Rental uni… 1439258 Kay       Central Region      Bukit Merah    
6 289234 Home in Si…  367042 Belinda   East Region         Tampines       
7 294281 Rental uni… 1521514 Elizabeth Central Region      Newton         
8 324945 Rental uni… 1439258 Kay       Central Region      Bukit Merah    
9 330095 Rental uni… 1439258 Kay       Central Region      Bukit Merah   
10 369141 Place to s… 1521514 Elizabeth Central Region      Newton        
# ℹ 3,473 more rows
# ℹ 12 more variables: latitude <dbl>, longitude <dbl>, room_type <chr>, 
#   price <dbl>, minimum_nights <dbl>, number_of_reviews <dbl>, 
#   last_review <date>, reviews_per_month <dbl>, 
#   calculated_host_listings_count <dbl>, availability_365 <dbl>, 
#   number_of_reviews_ltm <dbl>, license <chr> 
# ℹ Use `print(n = ...)` to see more rows
…
